{
    "/js/app.js": "/js/app.js",
    "/css/app.css": "/css/app.css",
    "/js/app-layout.js": "/js/app-layout.js",
    "/js/app-layout~js/dashboard-layout.js": "/js/app-layout~js/dashboard-layout.js",
    "/js/auth-routes.js": "/js/auth-routes.js",
    "/js/dashboard-layout.js": "/js/dashboard-layout.js",
    "/js/home.js": "/js/home.js",
    "/js/user-dashboard.js": "/js/user-dashboard.js",
    "/js/admin-dashboard.js": "/js/admin-dashboard.js",
    "/js/admin-dashboard-layout.js": "/js/admin-dashboard-layout.js",
    "/js/admin-dashboard-layout~js/app-layout~js/dashboard-layout.js": "/js/admin-dashboard-layout~js/app-layout~js/dashboard-layout.js",
    "/js/profile-dashboard.js": "/js/profile-dashboard.js"
}
